{
	"info": {
		"_postman_id": "9ba771c0-537a-4f64-943c-88e932e0d048",
		"name": "DjangoTask",
		"schema": "https://schema.getpostman.com/json/collection/v2.1.0/collection.json"
	},
	"item": [
		{
			"name": "auth",
			"item": [
				{
					"name": "login",
					"request": {
						"method": "POST",
						"header": [
							{
								"key": "Content-Type",
								"value": "application/json"
							}
						],
						"body": {
							"mode": "raw",
							"raw": "{\n   \"username\":\"admin@gmail.com\",\n   \"password\":\"admin@12345\",\n   \"grant_type\" :\"password\",\n   \"client_id\" : \"YAa4VGaXgX2rDAxrwzKd2DSxs4YmJBGAcIiKUYEX\"\n}\n"
						},
						"url": {
							"raw": "{{DOMAIN}}/api/auth/login/",
							"host": [
								"{{DOMAIN}}"
							],
							"path": [
								"api",
								"auth",
								"login",
								""
							]
						}
					},
					"response": []
				},
				{
					"name": "logout",
					"request": {
						"method": "POST",
						"header": [
							{
								"key": "Content-Type",
								"value": "application/json"
							},
							{
								"key": "Authorization",
								"value": "Bearer {{token}}",
								"type": "text"
							}
						],
						"body": {
							"mode": "raw",
							"raw": ""
						},
						"url": {
							"raw": "{{DOMAIN}}/api/auth/logout/",
							"host": [
								"{{DOMAIN}}"
							],
							"path": [
								"api",
								"auth",
								"logout",
								""
							]
						}
					},
					"response": []
				}
			]
		},
		{
			"name": "user",
			"item": [
				{
					"name": "add user",
					"request": {
						"method": "POST",
						"header": [
							{
								"key": "Content-Type",
								"value": "application/json"
							},
							{
								"key": "Authorization",
								"value": "Bearer {{token}}",
								"type": "text"
							}
						],
						"body": {
							"mode": "raw",
							"raw": "{\n   \"mobile_no\":\"9099499131\",\n   \"email\":\"ab1146dsdd4646dd454a436ddss1c@gmail.com\",\n   \"password\" : \"harsh12345\",\n   \"name\" : \"aaa\",\n   \"city\" : \"asad\",\n   \"address\" : \"sfasfs\"\n}"
						},
						"url": {
							"raw": "{{DOMAIN}}/api/user/",
							"host": [
								"{{DOMAIN}}"
							],
							"path": [
								"api",
								"user",
								""
							]
						}
					},
					"response": []
				},
				{
					"name": "update self data",
					"request": {
						"method": "PUT",
						"header": [
							{
								"key": "Content-Type",
								"value": "application/json"
							},
							{
								"key": "Authorization",
								"value": "Bearer {{token}}",
								"type": "text"
							}
						],
						"body": {
							"mode": "raw",
							"raw": "{\n   \"mobile_no\":\"9559499131\",\n   \"name\" : \"aaa\",\n   \"city\" : \"asad\",\n   \"address\" : \"sfasfs\"\n}"
						},
						"url": {
							"raw": "{{DOMAIN}}/api/user/details/",
							"host": [
								"{{DOMAIN}}"
							],
							"path": [
								"api",
								"user",
								"details",
								""
							]
						}
					},
					"response": []
				},
				{
					"name": "update data  by admin",
					"request": {
						"method": "PUT",
						"header": [
							{
								"key": "Content-Type",
								"value": "application/json"
							},
							{
								"key": "Authorization",
								"type": "text",
								"value": "Bearer {{token}}"
							}
						],
						"body": {
							"mode": "raw",
							"raw": "{\n   \"mobile_no\":\"9099777131\",\n   \"name\" : \"aaa\",\n   \"city\" : \"asad\",\n   \"address\" : \"sfasfs\"\n}"
						},
						"url": {
							"raw": "{{DOMAIN}}/api/user/2/",
							"host": [
								"{{DOMAIN}}"
							],
							"path": [
								"api",
								"user",
								"2",
								""
							]
						}
					},
					"response": []
				},
				{
					"name": "delete user by admin",
					"request": {
						"method": "DELETE",
						"header": [
							{
								"key": "Content-Type",
								"value": "application/json"
							},
							{
								"key": "Authorization",
								"type": "text",
								"value": "Bearer {{token}}"
							}
						],
						"body": {
							"mode": "raw",
							"raw": "{\n   \"mobile_no\":\"9033333131\"\n}"
						},
						"url": {
							"raw": "{{DOMAIN}}/api/user/1/",
							"host": [
								"{{DOMAIN}}"
							],
							"path": [
								"api",
								"user",
								"1",
								""
							]
						}
					},
					"response": []
				},
				{
					"name": "get all user",
					"protocolProfileBehavior": {
						"disableBodyPruning": true
					},
					"request": {
						"method": "GET",
						"header": [
							{
								"key": "Content-Type",
								"value": "application/json"
							},
							{
								"key": "Authorization",
								"value": "Bearer {{token}}",
								"type": "text"
							}
						],
						"body": {
							"mode": "raw",
							"raw": "{\n   \"mobile_no\":\"9099499131\",\n   \"role\":\"User\",\n   \"email\":\"ab111c@gmail.com\",\n   \"password\" : \"harsh12345\"\n}"
						},
						"url": {
							"raw": "{{DOMAIN}}/api/user/details/",
							"host": [
								"{{DOMAIN}}"
							],
							"path": [
								"api",
								"user",
								"details",
								""
							]
						}
					},
					"response": []
				}
			]
		}
	]
}